STaging
Partner ID: f0b1b984-4c7d-4d82-bd49-365500f4ebc3
Partner Secret: _2VUBpud66src0Ue
Grab ID: 22b6fb76-ca07-450e-b27f-85e402fb5201
Terminal ID: 9f101794f10d8a9a103f981d7



Prod test
Partner ID: 52533779-ce9b-499b-a60b-fabeb4f3cca0
Partner Secret: WCQ2ehpbvx4oW52V

PayDibs HQ (Test)
Grab ID: b4938ab2-b11f-4a72-bea7-1b9e3a3a2668
Terminal ID: 372bada314a27a313ba030b30