Create Date,Settle Date,Refno,Merchant Txn Id,Ccy,Amount,Proc,Fee,Description,ProcMsg
8/4/2013 11:54,8/4/2013 12:28,M3564TB7,98E27B12D904E,PHP,1000,BPIB,10,Booking I6V5WV,"[000] UBE Ref No.: 1860426, Txn Id: SUB867372"
8/4/2013 12:43,8/4/2013 12:53,HWPC2RB4,A6EC9815E00D2,PHP,1500,BDOX,15,Booking O8M7XC,[000] MBTC Payment Auto Validated on 6/20/2014 7:39:06 AM
8/4/2013 12:58,8/4/2013 13:08,CHDG5TV1,07D09432C9778,PHP,250,GCSH,20,Booking R8IJ7P,[000] RCBX Offline Payment Admin Validated on 6/20/2014 10:41:41 AM
8/4/2013 13:27,8/4/2013 13:29,MWA5DR66,549B5997A6748,PHP,500,LBC,20,Booking BFSJ5E,[000] MBTC Payment Auto Validated on 6/20/2014 7:49:06 AM
