{
	"info": {
		"_postman_id": "49678ed8-bb55-43c3-8dde-7f94d4c4066f",
		"name": "B scan C",
		"schema": "https://schema.getpostman.com/json/collection/v2.1.0/collection.json"
	},
	"item": [
		{
			"name": "PayCancel",
			"description": null,
			"item": [
				{
					"name": "1. RetailPay",
					"event": [
						{
							"listen": "test",
							"script": {
								"type": "text/javascript",
								"exec": [
									"pm.test(\"Successful POST request 200\", function () {",
									"    pm.expect(pm.response.code).to.be.oneOf([200]);",
									"});",
									"pm.test(\"Body matches string resultStatus is S\", function () {",
									"    pm.expect(pm.response.text()).to.include(\"\\\"resultStatus\\\":\\\"S\\\"\");",
									"   ",
									"    var jsonData =JSON.parse(pm.response.text());",
									"    var acquirementId =jsonData.response.body.acquirementId;",
									"    postman.setGlobalVariable(\"acquirementId\",acquirementId);",
									"",
									"});"
								]
							}
						},
						{
							"listen": "prerequest",
							"script": {
								"type": "text/javascript",
								"exec": [
									"//格式：2001-07-04T12:08:56+08:00  ",
									"var d = new Date();",
									"//日期",
									"var timeDate = d.getDate().toString();",
									"if(timeDate.length == 1){",
									"    timeDate = \"0\" + timeDate;",
									"}",
									"//小时",
									"var timeHour = d.getHours().toString();",
									"if(timeHour.length == 1){",
									"    timeHour = \"0\" + timeHour;",
									"}",
									"//分钟",
									"var timeMin = d.getMinutes().toString();",
									"if(timeMin.length == 1){",
									"    timeMin = \"0\" + timeMin;",
									"}",
									"//秒",
									"var timeSec = d.getSeconds().toString();",
									"if(timeSec.length == 1){",
									"    timeSec = \"0\" + timeSec;",
									"}",
									"",
									"//组装整个时间戳",
									"var timesDate = d.getFullYear() +\"-\"+ (d.getMonth()+1).toString() +\"-\"+ timeDate +\"T\"+ timeHour +\":\"+ timeMin +\":\"+ timeSec + \"+08:00\"; ",
									"postman.setGlobalVariable(\"currentTimeForBusiness\", timesDate);",
									"var merchantTransId= \"1234567890BSACNCBUSINESSVERIFY\"+d.getTime();",
									"postman.setGlobalVariable(\"merchantTransId\",merchantTransId);"
								]
							}
						}
					],
					"request": {
						"method": "POST",
						"header": [
							{
								"key": "Content-Type",
								"value": "application/json"
							}
						],
						"body": {
							"mode": "raw",
							"raw": "{\n    \"request\": {\n    \t\"head\": {\n            \"accessToken\": \"234567a\",\n            \"reqTime\": \"{{currentTimeForBusiness}}\",\n            \"reqMsgId\": \"1234567asdfasdf1123fda114\",\n            \"clientSecret\": \"8402efe256f04baaa2c82c260d2a18ce\",\n            \"clientId\": \"2018050212100200000010\",\n            \"function\": \"alipayplus.retail.pay\",\n            \"version\": \"2.0\",\n            \"reserve\":\"{ \\\"attr1\\\":\\\"val1\\\" }\"\n        },\n        \"body\": {\n            \"envInfo\": {\n                \"terminalType\": \"SYSTEM\",\n                \"osType\": \"Windows.PC\",\n                \"extendInfo\": \"\",\n                \"orderOsType\": \"IOS\",\n                \"sdkVersion\": \"1.0\",\n                \"websiteLanguage\": \"en_US\",\n                \"tokenId\": \"a8d359d6-ca3d-4048-9295-bbea5f6715a6\",\n                \"sessionId\": \"8EU6mLl5mUpUBgyRFT4v7DjfQ3fcauthcenter\",\n                \"appVersion\": \"1.0\",\n                \"merchantAppVersion\": \"1.0\",\n                \"clientKey\": \"e5806b64-598d-414f-b7f7-83f9576eb6fb\",\n                \"orderTerminalType\": \"SYSTEM\",\n                \"clientIp\": \"10.15.8.189\"\n            },\n            \"order\": {\n                \"expiryTime\": \"\",\n                \"merchantTransType\": \"type\",\n                \"orderTitle\": \"Women Summer Dress New White Lace  Sleeveless Cute Casual Summer Dresses  Vestidos roupas femininas WQW1045\",\n                \"merchantTransId\":\"{{merchantTransId}}\",\n                \"orderMemo\": \"Memo\",\n                \"createdTime\": \"2018-04-27T16:47:00+08:00\",\n                \"orderAmount\": {\n                    \"value\": \"100\",\n                    \"currency\": \"MYR\"\n                },\n                \"goods\": [\n                    {\n                        \"unit\": \"Kg\",\n                        \"category\": \"travelling/subway\",\n                        \"price\": {\n                            \"value\": \"100\",\n                            \"currency\": \"MYR\"\n                        },\n                        \"merchantShippingId\": \"564314314574327545\",\n                        \"merchantGoodsId\": \"24525635625623\",\n                        \"description\": \"Women Summer Dress New White Lace Sleeveless Cute Casual Summer Dresses Vestidos roupas femininas WQW1045\",\n                        \"snapshotUrl\": \"[http://snap.url.com]\",\n                        \"quantity\": \"3.2\",\n                        \"extendInfo\": \"\"\n                    }\n                ],\n                \"shippingInfo\": [\n                    {\n                        \"chargeAmount\": {\n                            \"value\": \"100\",\n                            \"currency\": \"MYR\"\n                        },\n                        \"lastName\": \"Li\",\n                        \"trackingNo\": \"646431431322332133\",\n                        \"countryName\": \"JP\",\n                        \"merchantShippingId\": \"564314314574327545\",\n                        \"cityName\": \"Atlanta\",\n                        \"address1\": \"137 W San Bernardino\",\n                        \"address2\": \"4114 Sepulveda\",\n                        \"phoneNo\": \"2423-2322342\",\n                        \"areaName\": \"Rd\",\n                        \"email\": \"abc@gmail.com\",\n                        \"zipCode\": \"310001\",\n                        \"stateName\": \"GA\",\n                        \"faxNo\": \"2123-11113\",\n                        \"carrier\": \"Federal Express\",\n                        \"firstName\": \"Jim\",\n                        \"mobileNo\": \"13765443223\"\n                    }\n                ],\n                \"seller\": {\n                    \"externalUserType\": \"\",\n                    \"nickname\": \"mike\",\n                    \"externalUserId\": \"\",\n                    \"userId\": \"216610000000175758913\"\n                },\n                \"buyer\":{\n                \t\"userId\":\"216610000000175758913\",\n                \t\"nickname\":\"mike\"\n            }\n            },\n            \"productCode\": \"51051000101000100040\",\n            \"mcc\": \"5732\",\n            \"merchantId\": \"216620000001829658109\",\n            \"extendInfo\": \"\",\n            \"notificationUrls\": [\n                {\n                    \"type\": \"PAY_RETURN\",\n                    \"url\": \"http://jarvis.intl.alipay.net/test_tool/spi/mockSpiResponse\"\n                },\n                {\n                    \"type\": \"NOTIFICATION\",\n                    \"url\": \"http://jarvis.intl.alipay.net/test_tool/spi/mockSpiResponse\"\n                }\n            ],\n            \"authCode\": \"281002020135387506013538\",\n            \"authCodeType\": \"BAR_CODE\",\n            \"shopInfo\": {\n            \t\"shopId\": \"\",\n            \t\"shopName\":\"\",\n            \t\"operatorId\":\"\"\n            }\n        }\n    },\n    \"signature\": \"signature string\"\n}"
						},
						"url": {
							"raw": "http://11.160.187.195/alipayplus/retail/pay.htm",
							"protocol": "http",
							"host": [
								"11",
								"160",
								"187",
								"195"
							],
							"path": [
								"alipayplus",
								"retail",
								"pay.htm"
							]
						},
						"description": "当面付请求报文"
					},
					"response": []
				},
				{
					"name": "2. Cancel",
					"event": [
						{
							"listen": "test",
							"script": {
								"type": "text/javascript",
								"exec": [
									"pm.test(\"Successful POST request 200\", function () {",
									"    pm.expect(pm.response.code).to.be.oneOf([200]);",
									"});",
									"pm.test(\"Body matches string resultStatus is S\", function () {",
									"    pm.expect(pm.response.text()).to.include(\"\\\"resultStatus\\\":\\\"S\\\"\");",
									"});",
									""
								]
							}
						}
					],
					"request": {
						"method": "POST",
						"header": [
							{
								"key": "Content-Type",
								"value": "application/json"
							}
						],
						"body": {
							"mode": "raw",
							"raw": "{\n    \"request\":{\n        \"head\": {\n            \"accessToken\": \"234567a\",\n            \"reqTime\": \"2017-01-23T11:00:00+08:00\",\n            \"reserve\": \"\",\n            \"reqMsgId\": \"1234567asdfasdf1123fda143\",\n            \"clientSecret\": \"9207ajkjkhlkhiuoeie953d9af6b0a394f7\",\n            \"clientId\": \"2018050212100200000010\",\n            \"function\": \"alipayplus.acquiring.order.cancel\",\n            \"version\": \"2.0\"\n        },\n        \"body\":{\n            \"merchantId\":\"216620000001829658109\",\n            \"merchantTransId\": \"\",\n            \"acquirementId\":\"{{acquirementId}}\"\n        }\n    },\n    \"signature\":\"signature string\"\n}"
						},
						"url": {
							"raw": "http://11.160.187.195/alipayplus/acquiring/order/cancel.htm",
							"protocol": "http",
							"host": [
								"11",
								"160",
								"187",
								"195"
							],
							"path": [
								"alipayplus",
								"acquiring",
								"order",
								"cancel.htm"
							]
						}
					},
					"response": []
				}
			]
		},
		{
			"name": "PayRefund",
			"description": null,
			"item": [
				{
					"name": "1. RetailPay",
					"event": [
						{
							"listen": "test",
							"script": {
								"type": "text/javascript",
								"exec": [
									"pm.test(\"Successful POST request 200\", function () {",
									"    pm.expect(pm.response.code).to.be.oneOf([200]);",
									"});",
									"pm.test(\"Body matches string resultStatus is S\", function () {",
									"    pm.expect(pm.response.text()).to.include(\"\\\"resultStatus\\\":\\\"S\\\"\");",
									"   ",
									"    var jsonData =JSON.parse(pm.response.text());",
									"    var acquirementId =jsonData.response.body.acquirementId;",
									"    postman.setGlobalVariable(\"acquirementId\",acquirementId);",
									"",
									"});"
								]
							}
						},
						{
							"listen": "prerequest",
							"script": {
								"type": "text/javascript",
								"exec": [
									"//格式：2001-07-04T12:08:56+08:00  ",
									"var d = new Date();",
									"//日期",
									"var timeDate = d.getDate().toString();",
									"if(timeDate.length == 1){",
									"    timeDate = \"0\" + timeDate;",
									"}",
									"//小时",
									"var timeHour = d.getHours().toString();",
									"if(timeHour.length == 1){",
									"    timeHour = \"0\" + timeHour;",
									"}",
									"//分钟",
									"var timeMin = d.getMinutes().toString();",
									"if(timeMin.length == 1){",
									"    timeMin = \"0\" + timeMin;",
									"}",
									"//秒",
									"var timeSec = d.getSeconds().toString();",
									"if(timeSec.length == 1){",
									"    timeSec = \"0\" + timeSec;",
									"}",
									"",
									"//组装整个时间戳",
									"var timesDate = d.getFullYear() +\"-\"+ (d.getMonth()+1).toString() +\"-\"+ timeDate +\"T\"+ timeHour +\":\"+ timeMin +\":\"+ timeSec + \"+08:00\"; ",
									"postman.setGlobalVariable(\"currentTimeForBusiness\", timesDate);",
									"var merchantTransId= \"1234567890BSACNCBUSINESSVERIFY\"+d.getTime();",
									"postman.setGlobalVariable(\"merchantTransId\",merchantTransId);"
								]
							}
						}
					],
					"request": {
						"method": "POST",
						"header": [
							{
								"key": "Content-Type",
								"value": "application/json"
							}
						],
						"body": {
							"mode": "raw",
							"raw": "{\n    \"request\": {\n    \t\"head\": {\n            \"accessToken\": \"234567a\",\n            \"reqTime\": \"{{currentTimeForBusiness}}\",\n            \"reqMsgId\": \"1234567asdfasdf1123fda114\",\n            \"clientSecret\": \"9207ajkjkhlkhiuoeie953d9af6b0a394f7\",\n            \"clientId\": \"2017060600000000000002\",\n            \"function\": \"alipayplus.retail.pay\",\n            \"version\": \"2.0\",\n            \"reserve\":\"{ \\\"attr1\\\":\\\"val1\\\" }\"\n        },\n        \"body\": {\n            \"envInfo\": {\n                \"terminalType\": \"SYSTEM\",\n                \"osType\": \"Windows.PC\",\n                \"extendInfo\": \"\",\n                \"orderOsType\": \"IOS\",\n                \"sdkVersion\": \"1.0\",\n                \"websiteLanguage\": \"en_US\",\n                \"tokenId\": \"a8d359d6-ca3d-4048-9295-bbea5f6715a6\",\n                \"sessionId\": \"8EU6mLl5mUpUBgyRFT4v7DjfQ3fcauthcenter\",\n                \"appVersion\": \"1.0\",\n                \"merchantAppVersion\": \"1.0\",\n                \"clientKey\": \"e5806b64-598d-414f-b7f7-83f9576eb6fb\",\n                \"orderTerminalType\": \"SYSTEM\",\n                \"clientIp\": \"10.15.8.189\"\n            },\n            \"order\": {\n                \"expiryTime\": \"\",\n                \"merchantTransType\": \"type\",\n                \"orderTitle\": \"Women Summer Dress New White Lace  Sleeveless Cute Casual Summer Dresses  Vestidos roupas femininas WQW1045\",\n                \"merchantTransId\":\"{{merchantTransId}}\",\n                \"orderMemo\": \"Memo\",\n                \"createdTime\": \"2018-04-27T16:47:00+08:00\",\n                \"orderAmount\": {\n                    \"value\": \"100\",\n                    \"currency\": \"MYR\"\n                },\n                \"goods\": [\n                    {\n                        \"unit\": \"Kg\",\n                        \"category\": \"travelling/subway\",\n                        \"price\": {\n                            \"value\": \"100\",\n                            \"currency\": \"MYR\"\n                        },\n                        \"merchantShippingId\": \"564314314574327545\",\n                        \"merchantGoodsId\": \"24525635625623\",\n                        \"description\": \"Women Summer Dress New White Lace Sleeveless Cute Casual Summer Dresses Vestidos roupas femininas WQW1045\",\n                        \"snapshotUrl\": \"[http://snap.url.com]\",\n                        \"quantity\": \"3.2\",\n                        \"extendInfo\": \"\"\n                    }\n                ],\n                \"shippingInfo\": [\n                    {\n                        \"chargeAmount\": {\n                            \"value\": \"100\",\n                            \"currency\": \"MYR\"\n                        },\n                        \"lastName\": \"Li\",\n                        \"trackingNo\": \"646431431322332133\",\n                        \"countryName\": \"JP\",\n                        \"merchantShippingId\": \"564314314574327545\",\n                        \"cityName\": \"Atlanta\",\n                        \"address1\": \"137 W San Bernardino\",\n                        \"address2\": \"4114 Sepulveda\",\n                        \"phoneNo\": \"2423-2322342\",\n                        \"areaName\": \"Rd\",\n                        \"email\": \"abc@gmail.com\",\n                        \"zipCode\": \"310001\",\n                        \"stateName\": \"GA\",\n                        \"faxNo\": \"2123-11113\",\n                        \"carrier\": \"Federal Express\",\n                        \"firstName\": \"Jim\",\n                        \"mobileNo\": \"13765443223\"\n                    }\n                ],\n                \"seller\": {\n                    \"externalUserType\": \"\",\n                    \"nickname\": \"mike\",\n                    \"externalUserId\": \"\",\n                    \"userId\": \"216610000000175758913\"\n                },\n                \"buyer\":{\n                \t\"userId\":\"216610000000175758913\",\n                \t\"nickname\":\"mike\"\n            }\n            },\n            \"productCode\": \"51051000101000100040\",\n            \"mcc\": \"5732\",\n            \"merchantId\": \"216620000000617298662\",\n            \"extendInfo\": \"\",\n            \"notifyUrl\":\"http://11.239.123.57/test_tool/spi/mockSpiResponse\",\n            \"authCode\": \"281002020135387506013538\",\n            \"authCodeType\": \"BAR_CODE\",\n            \"shopInfo\": {\n            \t\"shopId\": \"\",\n            \t\"shopName\":\"\",\n            \t\"operatorId\":\"\"\n            }\n        }\n    },\n    \"signature\": \"signature string\"\n}"
						},
						"url": {
							"raw": "http://11.160.187.195/alipayplus/retail/pay.htm",
							"protocol": "http",
							"host": [
								"11",
								"160",
								"187",
								"195"
							],
							"path": [
								"alipayplus",
								"retail",
								"pay.htm"
							]
						},
						"description": "当面付请求报文"
					},
					"response": []
				},
				{
					"name": "2. Order Query",
					"event": [
						{
							"listen": "test",
							"script": {
								"type": "text/javascript",
								"exec": [
									"pm.test(\"Successful POST request 200\", function () {",
									"    pm.expect(pm.response.code).to.be.oneOf([200]);",
									"});",
									"pm.test(\"Body matches string resultStatus is S\", function () {",
									"    pm.expect(pm.response.text()).to.include(\"\\\"resultStatus\\\":\\\"S\\\"\");",
									"   ",
									"});",
									"",
									""
								]
							}
						}
					],
					"request": {
						"method": "POST",
						"header": [
							{
								"key": "Content-Type",
								"value": "application/json"
							}
						],
						"body": {
							"mode": "raw",
							"raw": "{\n    \"request\":{\n        \"head\": {\n            \"accessToken\": \"234567a\",\n            \"reqTime\": \"2017-01-23T11:00:00+08:00\",\n            \"reserve\": \"\",\n            \"reqMsgId\": \"1234567asdfasdf1123fda143\",\n            \"clientSecret\": \"9207ajkjkhlkhiuoeie953d9af6b0a394f7\",\n            \"clientId\": \"2017060600000000000002\",\n            \"function\": \"alipayplus.acquiring.order.query\",\n            \"version\": \"2.0\"\n        },\n        \"body\":{\n            \"merchantId\":\"216620000000617298662\",\n            \"acquirementId\":\"{{acquirementId}}\"\n        }\n    },\n    \"signature\":\"signature string\"\n}"
						},
						"url": {
							"raw": "http://11.160.187.195/alipayplus/acquiring/order/query.htm",
							"protocol": "http",
							"host": [
								"11",
								"160",
								"187",
								"195"
							],
							"path": [
								"alipayplus",
								"acquiring",
								"order",
								"query.htm"
							]
						}
					},
					"response": []
				},
				{
					"name": "3. Refund",
					"event": [
						{
							"listen": "test",
							"script": {
								"type": "text/javascript",
								"exec": [
									"pm.test(\"Successful POST request 200\", function () {",
									"    pm.expect(pm.response.code).to.be.oneOf([200]);",
									"});",
									"pm.test(\"Body matches string resultStatus is S\", function () {",
									"    pm.expect(pm.response.text()).to.include(\"\\\"resultStatus\\\":\\\"S\\\"\");",
									"});",
									""
								]
							}
						},
						{
							"listen": "prerequest",
							"script": {
								"type": "text/javascript",
								"exec": [
									"var d = new Date();",
									"postman.setGlobalVariable(\"merchantRefundRequestId\",\"BSCANCREFUND\"+d.getTime());"
								]
							}
						}
					],
					"request": {
						"method": "POST",
						"header": [
							{
								"key": "Content-Type",
								"value": "application/json"
							}
						],
						"body": {
							"mode": "raw",
							"raw": "{\n  \"request\": {\n    \"body\": {\n      \"refundReason\": \"example\",\n      \"refundAppliedTime\": \"2018-06-27T12:08:56+08:00\",\n      \"payoutAccountNo\": \"\",\n      \"actorType\": \"BACK_OFFICE\",\n      \"returnChargeToPayer\": true,\n      \"refundAmount\": {\n        \"value\": \"100\",\n        \"currency\": \"MYR\"\n      },\n      \"requestId\": \"{{merchantRefundRequestId}}\",\n      \"acquirementId\":\"{{acquirementId}}\",\n      \"merchantId\": \"216620000000617298662\",\n      \"extendInfo\": \"\"\n    },\n    \"head\": {\n      \"accessToken\": \"accessToken\",\n      \"reqTime\": \"2018-04-27T12:08:56+08:00\",\n      \"reserve\": \"\",\n      \"reqMsgId\": \"1234567asdfasdf1123fda131002\",\n      \"clientSecret\": \"9207ajkjkhlkhiuoeie953d9af6b0a394f7\",\n      \"clientId\": \"2017060600000000000002\",\n      \"version\": \"2.0\",\n      \"function\": \"alipayplus.acquiring.order.refund\"\n    }\n  },\n  \"signature\": \"signature string\"\n}"
						},
						"url": {
							"raw": "http://11.160.187.195/alipayplus/acquiring/order/refund.htm",
							"protocol": "http",
							"host": [
								"11",
								"160",
								"187",
								"195"
							],
							"path": [
								"alipayplus",
								"acquiring",
								"order",
								"refund.htm"
							]
						},
						"description": "退款"
					},
					"response": []
				},
				{
					"name": "4. Refund Query",
					"event": [
						{
							"listen": "test",
							"script": {
								"type": "text/javascript",
								"exec": [
									"pm.test(\"Successful POST request 200\", function () {",
									"    pm.expect(pm.response.code).to.be.oneOf([200]);",
									"});",
									"pm.test(\"Body matches string resultStatus is S\", function () {",
									"    pm.expect(pm.response.text()).to.include(\"\\\"resultStatus\\\":\\\"S\\\"\");",
									"});",
									""
								]
							}
						}
					],
					"request": {
						"method": "POST",
						"header": [
							{
								"key": "Content-Type",
								"value": "application/json"
							}
						],
						"body": {
							"mode": "raw",
							"raw": "{\n    \"request\":{\n        \"head\": {\n            \"accessToken\": \"234567a\",\n            \"reqTime\": \"2017-01-23T11:00:00+08:00\",\n            \"reserve\": \"\",\n            \"reqMsgId\": \"1234567asdfasdf1123fda143\",\n            \"clientSecret\": \"9207ajkjkhlkhiuoeie953d9af6b0a394f7\",\n            \"clientId\": \"2017060600000000000002\",\n            \"function\": \"alipayplus.acquiring.refund.query\",\n            \"version\": \"2.0\"\n        },\n        \"body\":{\n            \"refundId\":\"\",\n            \"merchantId\":\"216620000000617298662\",\n            \"merchantTransId\":\"\",\n            \"acquirementId\":\"{{acquirementId}}\"\n        }\n    },\n    \"signature\":\"signature string\"\n}"
						},
						"url": {
							"raw": "http://11.160.187.195/alipayplus/acquiring/refund/query.htm",
							"protocol": "http",
							"host": [
								"11",
								"160",
								"187",
								"195"
							],
							"path": [
								"alipayplus",
								"acquiring",
								"refund",
								"query.htm"
							]
						}
					},
					"response": []
				}
			]
		}
	]
}