USE [ReportServer]
GO
/****** Object:  UserDefinedFunction [dbo].[ExtendedCatalog]    Script Date: 6/10/2020 12:16:04 PM ******/
SET ANSI_NULLS ON
GO
SET QUOTED_IDENTIFIER ON
GO

CREATE FUNCTION [dbo].[ExtendedCatalog]
    (@OwnerID as uniqueidentifier, 
     @Path as nvarchar(425), 
     @EditSessionID as varchar(32))
RETURNS TABLE 
AS RETURN 
(
SELECT TOP 1 * FROM (
SELECT 
    C.[ItemID], 
    C.[PolicyID],
    C.[Path],
    C.[Name],
    C.[Description], 
    C.[Property],
    C.[Type], 
    C.[ExecutionFlag], 
    C.[Parameter], 
    C.[Intermediate], 
    CONVERT(BIT, 1) AS IntermediateIsPermanent, 
    C.[SnapshotDataID], 
    C.[LinkSourceID], 
    C.[ExecutionTime], 
    C.[SnapshotLimit],
    C.[CreatedByID], 
    C.[ModifiedByID],
    C.[CreationDate],
    C.[ModifiedDate], 
    C.[MimeType],
    C.[Content],
    C.[Hidden],
    NULL AS [EditSessionID], 
    C.[SubType],
    C.[ComponentID]
FROM [Catalog] C
WHERE C.Path = @Path AND @EditSessionID IS NULL
UNION ALL
SELECT 
    TC.[TempCatalogID], 
    NULL as [PolicyID],
    TC.[ContextPath],
    TC.[Name],
    TC.[Description], 
    TC.[Property],
    2 as [Type], 
    1 as [ExecutionFlag],
    TC.[Parameter], 
    TC.[Intermediate], 
    TC.[IntermediateIsPermanent],
    NULL as [SnapshotDataID], 
    NULL as [LinkSourceID], 
    NULL as [ExecutionTime], 
    0 as [SnapshotLimit],
    TC.[OwnerID] as [CreatedByID],
    TC.[OwnerID] as [ModifiedByID],
    TC.[CreationTime] as [CreationDate],
    TC.[CreationTime] as [ModifiedDate],
    NULL as [MimeType],
    TC.Content,
    convert(bit, 0) as [Hidden],
    TC.[EditSessionID] AS [EditSessionID], 
    NULL as [SubType],
    NULL as [ComponentID]
FROM [ReportServerTempDB].dbo.TempCatalog TC
WHERE	TC.OwnerID = @OwnerID AND
        TC.ContextPath = @Path AND
        TC.EditSessionID = @EditSessionID
) A )
GO
