<?xml version="1.0" encoding="utf-8"?>
<!-- Generator: Adobe Illustrator 22.1.0, SVG Export Plug-In . SVG Version: 6.00 Build 0)  -->
<svg version="1.1" id="Layer_1" xmlns="http://www.w3.org/2000/svg" xmlns:xlink="http://www.w3.org/1999/xlink" x="0px" y="0px"
	 viewBox="0 0 34 21.2" style="enable-background:new 0 0 34 21.2;" xml:space="preserve">
<style type="text/css">
	.st0{fill:#00B14F;}
	.st1{fill:#FFFFFF;}
	.st2{fill:none;}
</style>
<g>
	<path class="st0" d="M32.4,21.2H1.6c-0.9,0-1.6-0.7-1.6-1.6v-18C0,0.7,0.7,0,1.6,0h30.8C33.3,0,34,0.7,34,1.6v18
		C34,20.5,33.3,21.2,32.4,21.2z"/>
</g>
<g>
	<g>
		<path class="st1" d="M11.3,10.4v0.3c0,1.8,0.7,3.4,1.9,4.6c1.2,1.2,2.8,1.9,4.5,1.9c1.4,0,2.6-0.3,3.7-0.9c0.9-0.5,1.2-1,1.3-1.1
			V9.8h-5.2v1h4.2v4.1l0,0c-0.5,0.5-1.6,1.3-3.9,1.3c-1.5,0-2.8-0.6-3.9-1.6c-1-1-1.6-2.4-1.6-3.9v-0.3c0-1.4,0.6-2.8,1.7-3.8
			c1.1-1.1,2.6-1.6,4.1-1.6c1.4,0,2.4,0.2,3.2,0.7V4.5C20.6,4.2,19.6,4,18.2,4C14.5,4,11.3,6.9,11.3,10.4"/>
		<path class="st1" d="M21.4,7.6V6.4c-0.9-0.5-1.9-0.7-3.2-0.7c-1.3,0-2.6,0.5-3.6,1.4c-1,0.9-1.5,2.1-1.5,3.3v0.3
			c0,2.6,2.1,4.7,4.7,4.7c2.1,0,2.9-0.7,3.2-0.9v-3h-3.4v1H20v1.5l0,0c-0.3,0.1-1,0.4-2.2,0.4c-1,0-1.9-0.4-2.6-1.1
			c-0.7-0.7-1.1-1.6-1.1-2.6v-0.3c0-2,1.9-3.7,4.1-3.7C19.7,6.7,20.7,6.9,21.4,7.6"/>
	</g>
	<g>
		<g>
			<path class="st2" d="M0,10.4v0.3c0,1.8,0.7,3.4,1.9,4.6c1.2,1.2,2.8,1.9,4.5,1.9c1.4,0,2.6-0.3,3.7-0.9c0.9-0.5,1.2-1,1.3-1.1
				V9.8H6.2v1h4.2v4.1l0,0c-0.5,0.5-1.6,1.3-3.9,1.3c-1.5,0-2.8-0.6-3.9-1.6c-1-1-1.6-2.4-1.6-3.9v-0.3C1,9,1.6,7.6,2.7,6.6
				c1.1-1.1,2.6-1.6,4.1-1.6c1.4,0,2.4,0.2,3.2,0.7V4.5C9.3,4.2,8.3,4,6.9,4C3.1,4,0,6.9,0,10.4"/>
			<path class="st2" d="M10.1,7.6V6.4C9.2,5.9,8.2,5.7,6.9,5.7c-1.3,0-2.6,0.5-3.6,1.4c-1,0.9-1.5,2.1-1.5,3.3v0.3
				c0,2.6,2.1,4.7,4.7,4.7c2.1,0,2.9-0.7,3.2-0.9v-3H6.2v1h2.5v1.5l0,0c-0.3,0.1-1,0.4-2.2,0.4c-1,0-1.9-0.4-2.6-1.1
				c-0.7-0.7-1.1-1.6-1.1-2.6v-0.3c0-2,1.9-3.7,4.1-3.7C8.4,6.7,9.3,6.9,10.1,7.6"/>
		</g>
		<g>
			<path class="st2" d="M22.7,10.4v0.3c0,1.8,0.7,3.4,1.9,4.6c1.2,1.2,2.8,1.9,4.5,1.9c1.4,0,2.6-0.3,3.7-0.9c0.9-0.5,1.2-1,1.3-1.1
				V9.8h-5.2v1H33v4.1l0,0c-0.5,0.5-1.6,1.3-3.9,1.3c-1.5,0-2.8-0.6-3.9-1.6c-1-1-1.6-2.4-1.6-3.9v-0.3c0-1.4,0.6-2.8,1.7-3.8
				c1.1-1.1,2.6-1.6,4.1-1.6c1.4,0,2.4,0.2,3.2,0.7V4.5C31.9,4.2,30.9,4,29.5,4C25.8,4,22.7,6.9,22.7,10.4"/>
			<path class="st2" d="M32.8,7.6V6.4c-0.9-0.5-1.9-0.7-3.2-0.7c-1.3,0-2.6,0.5-3.6,1.4c-1,0.9-1.5,2.1-1.5,3.3v0.3
				c0,2.6,2.1,4.7,4.7,4.7c2.1,0,2.9-0.7,3.2-0.9v-3h-3.4v1h2.5v1.5l0,0c-0.3,0.1-1,0.4-2.2,0.4c-1,0-1.9-0.4-2.6-1.1
				c-0.7-0.7-1.1-1.6-1.1-2.6v-0.3c0-2,1.9-3.7,4.1-3.7C31.1,6.7,32,6.9,32.8,7.6"/>
		</g>
	</g>
</g>
</svg>
